{ name : ashay,msg : from sahay to jash,recName : jash;}
{ name : ashay,msg : from jashh to sahsyyyy,recName : jash;}
{ name : jash,msg : from jashh to sahsyyyy,recName : ashay;}
{ name : jash,msg : from jashh to sahsyyyy ,recName : ashay;}
